Intro to Bayesian (Linear Models) for Speech and Language Scientists
…
[Massive Auditory Lexical Decision](https://aphl.artsrn.ualberta.ca/?page_id=827) (Tucker et al. 2019):

- **MALD data set**: 521 subjects, RTs and accuracy.

- Subset of MALD: 30 subjects, 100 observations each.

--

```r
mald
```

```
## # A tibble: 3,000 × 7
##    Subject Item         IsWord PhonLev    RT ACC       RT_log
##    <chr>   <chr>        <fct>    <dbl> <int> <fct>      <dbl>
##  1 15345   nihnaxr      FALSE     5.84   945 correct     6.85
##  2 15345   skaep        FALSE     6.03  1046 incorrect   6.95
##  3 15345   grandparents TRUE     10.3    797 correct     6.68
##  4 15345   sehs         FALSE     5.88  2134 correct     7.67
##  5 15345   cousin       TRUE      5.78   597 correct     6.39
##  6 15345   blowup       TRUE      6.03   716 correct     6.57
##  7 15345   hhehrnzmaxn  FALSE     7.30  1985 correct     7.59
##  8 15345   mantic       TRUE      6.21  1591 correct     7.37
##  9 15345   notable      TRUE      6.82   620 correct     6.43
## 10 15345   prowthihviht FALSE     7.68  1205 correct     7.09
## # … with 2,990 more rows
```
…
---

# Get MCMC draws

You can easily extract the MCMC draws:

```r
brm_2 %>%
  gather_draws(`b_.*`, regex = TRUE)
```

```
## # A tibble: 8,000 × 5
## # Groups:   .variable [2]
##    .chain .iteration .draw .variable   .value
##     <int>      <int> <int> <chr>        <dbl>
##  1      1          1     1 b_Intercept   995.
##  2      1          2     2 b_Intercept  1007.
##  3      1          3     3 b_Intercept   965.
##  4      1          4     4 b_Intercept   991.
##  5      1          5     5 b_Intercept   975.
##  6      1          6     6 b_Intercept   987.
##  7      1          7     7 b_Intercept   987.
##  8      1          8     8 b_Intercept   974.
##  9      1          9     9 b_Intercept   980.
## 10      1         10    10 b_Intercept   981.
## # … with 7,990 more rows
```
…
